module spockee.com/corgi

go 1.19

require (
	github.com/briandowns/spinner v1.19.0
	github.com/manifoldco/promptui v0.9.0
	github.com/spf13/cobra v1.5.0
	gopkg.in/yaml.v2 v2.4.0
)

require (
	github.com/chzyer/readline v0.0.0-20180603132655-2972be24d48e // indirect
	github.com/cpuguy83/go-md2man/v2 v2.0.2 // indirect
	github.com/fatih/color v1.7.0 // indirect
	github.com/inconshreveable/mousetrap v1.0.0 // indirect
	github.com/mattn/go-colorable v0.1.2 // indirect
	github.com/mattn/go-isatty v0.0.8 // indirect
	github.com/russross/blackfriday/v2 v2.1.0 // indirect
	github.com/spf13/pflag v1.0.5 // indirect
	golang.org/x/sys v0.0.0-20220818161305-2296e01440c6 // indirect
)
